{
  "books": [
    {
      "title": "Harry Potter",
      "author": "JK Rowling",
      "uuid": "04a3a09a-0da6-48cb-adc5-aa46bef90980"
    },
    {
      "title": "El templo de Horus",
      "author": "A",
      "uuid": "a460001d-c89c-4472-b554-894d34548260"
    },
    {
      "title": "La grua estontola",
      "author": "Otro más",
      "uuid": "038d792f-f233-4d92-b3fd-6a46855ab9ea"
    },
    {
      "title": "Disparame yo ya estoy muerto",
      "author": "Julia Navarro",
      "uuid": "962cc964-7bec-4f6c-8dbf-7ebbbe1ff44e"
    },
    {
      "title": "Harry Potter",
      "author": "JK Rowling",
      "uuid": "4b8ce8f2-d655-49e3-b33c-5cd6d7e19872"
    }
  ],
  "bookPageManagers": [
    {
      "uuid": "04a3a09a-0da6-48cb-adc5-aa46bef90980",
      "currentPage": 0
    },
    {
      "uuid": "a460001d-c89c-4472-b554-894d34548260",
      "currentPage": 0
    },
    {
      "uuid": "038d792f-f233-4d92-b3fd-6a46855ab9ea",
      "currentPage": 0
    },
    {
      "uuid": "962cc964-7bec-4f6c-8dbf-7ebbbe1ff44e",
      "currentPage": 0
    },
    {
      "uuid": "4b8ce8f2-d655-49e3-b33c-5cd6d7e19872",
      "currentPage": 0
    }
  ]
}